===============================================================================
PixInsight Signing Keys Maintenance Utility Script Changelog
===============================================================================

2022/04/13 - v1.0

- Initial version released with PixInsight core 1.8.9-1
-------------------------------------------------------------------------------
